{
  "should allow direct transfer of MoonCats to the JumpPort": [
    {
      "desc": "Deposit MoonCat with safeTransferFrom",
      "gas": 187168,
      "gasCost": "0.02246016 ETH @ 120.0 gwei gas cost"
    },
    {
      "desc": "MoonCat safeTransferFrom in general",
      "gas": 111126,
      "gasCost": "0.01333512 ETH @ 120.0 gwei gas cost"
    },
    {
      "desc": "Withdraw MoonCat with safeWithdraw",
      "gas": 116206,
      "gasCost": "0.01394472 ETH @ 120.0 gwei gas cost"
    },
    {
      "desc": "Deposit 2nd MoonCat with safeTransferFrom",
      "gas": 170068,
      "gasCost": "0.02040816 ETH @ 120.0 gwei gas cost"
    },
    {
      "desc": "Withdraw 2nd MoonCat with withdraw",
      "gas": 115766,
      "gasCost": "0.01389192 ETH @ 120.0 gwei gas cost"
    },
    {
      "desc": "Re-Deposit MoonCat with safeTransferFrom",
      "gas": 160268,
      "gasCost": "0.01923216 ETH @ 120.0 gwei gas cost"
    }
  ],
  "should allow approving and depositing MoonCats": [
    {
      "desc": "Deposit MoonCat with deposit function",
      "gas": 183209,
      "gasCost": "0.02198508 ETH @ 120.0 gwei gas cost"
    },
    {
      "desc": "Deposit 2nd MoonCat with deposit function",
      "gas": 170423,
      "gasCost": "0.02045076 ETH @ 120.0 gwei gas cost"
    }
  ],
  "should allow approving and depositing multiple MoonCats at once": [
    {
      "desc": "Deposit 2 MoonCats at once with deposit function",
      "gas": 291028,
      "gasCost": "0.03492336 ETH @ 120.0 gwei gas cost"
    }
  ],
  "should be able to enumerate owned tokens by owner address": [
    {
      "desc": "Owner enumeration estimate across 1,000 token range",
      "gas": 2374332,
      "gasCost": "0.28491984 ETH @ 120.0 gwei gas cost"
    }
  ],
  "should be able to withdraw multiple tokens at once": [
    {
      "desc": "Withdraw 2 MoonCats with safeWithdraw",
      "gas": 211078,
      "gasCost": "0.02532936 ETH @ 120.0 gwei gas cost"
    }
  ],
  "should be able to enumerate token owners": [
    {
      "desc": "Token owners enumeration estimate across 1,000 token range",
      "gas": 2558978,
      "gasCost": "0.30707736 ETH @ 120.0 gwei gas cost"
    }
  ],
  "should properly track multiple locks on tokens": [
    {
      "desc": "Lock 1 on MoonCat",
      "gas": 74528,
      "gasCost": "0.00894336 ETH @ 120.0 gwei gas cost"
    },
    {
      "desc": "Lock 2 on MoonCat",
      "gas": 59863,
      "gasCost": "0.00718356 ETH @ 120.0 gwei gas cost"
    },
    {
      "desc": "Lock 3 on MoonCat",
      "gas": 62298,
      "gasCost": "0.00747576 ETH @ 120.0 gwei gas cost"
    },
    {
      "desc": "Unlock 1 on MoonCat",
      "gas": 36774,
      "gasCost": "0.00441288 ETH @ 120.0 gwei gas cost"
    },
    {
      "desc": "Unlock 2 on MoonCat",
      "gas": 41574,
      "gasCost": "0.00498888 ETH @ 120.0 gwei gas cost"
    },
    {
      "desc": "Unlock 3 on MoonCat",
      "gas": 41709,
      "gasCost": "0.00500508 ETH @ 120.0 gwei gas cost"
    }
  ]
}